Call "./guitests/setup/setup.txt"
Set "ImageFolder" "./guitests/Scenario1_bis/images"

Click "{ImageFolder}/1558459669005.png" 88 66
Click "{ImageFolder}/1558459718310.png" 64 82
Click "{ImageFolder}/1558459651110.png" 53 50
Click "{ImageFolder}/1558459747527.png" 83 76
Click "{ImageFolder}/1558459773411.png"
Click "{ImageFolder}/1558459797157.png" 80 51
Click "{ImageFolder}/1558459824045.png" 45 60
Click "{ImageFolder}/1558459840209.png"
Check "{ImageFolder}/1558459912283.png"
Click "{ImageFolder}/1558459941349.png"
StepDelay "200"
Click "{ImageFolder}/1558459941349.png"
